Unnamed: 0,AwayTeam,FTAG,FTHG,HTAG,HTHG,HomeTeam,data,jornada
0,ESTEGHLAL KHUZESTAN,0,1,2,1,TRACTOR SAZI,2016-07-25,7
1,ZOB AHAN,0,1,1,1,MASHHAD FC,2016-07-25,7
2,NAFT TEHRAN,0,1,1,0,ESTEGHLAL FC,2016-07-25,7
3,SANAT NAFT,0,0,0,0,SABA QOM,2016-07-25,7
4,PAYKAN,0,0,0,0,GOSTARESH,2016-07-26,7
5,PADIDEH,1,0,0,0,SEPAHAN FC,2016-07-26,7
6,MACHINE SAZI TABRIZ,0,0,2,1,FOOLAD FC,2016-07-26,7
7,PERSEPOLIS FC,0,0,1,0,SAIPA,2016-07-26,7
9,SAIPA,0,0,1,1,ZOB AHAN,2016-07-31,7
8,MASHHAD FC,0,0,1,1,PADIDEH,2016-07-31,7
11,ESTEGHLAL FC,0,1,1,1,ESTEGHLAL KHUZESTAN,2016-07-31,7
10,SABA QOM,1,1,0,0,PAYKAN,2016-07-31,7
2,FOOLAD FC,0,0,1,1,PERSEPOLIS FC,2016-08-01,8
3,TRACTOR SAZI,0,0,0,0,SANAT NAFT,2016-08-01,8
0,GOSTARESH,0,0,0,0,MACHINE SAZI TABRIZ,2016-08-01,8
1,SEPAHAN FC,1,0,0,0,NAFT TEHRAN,2016-08-01,8
4,SAIPA,1,0,1,0,MASHHAD FC,2016-08-05,8
5,SANAT NAFT,0,0,2,1,ESTEGHLAL FC,2016-08-05,8
6,ZOB AHAN,1,0,1,0,FOOLAD FC,2016-08-05,8
10,ESTEGHLAL KHUZESTAN,0,2,1,1,SEPAHAN FC,2016-08-06,8
9,MACHINE SAZI TABRIZ,0,1,1,0,SABA QOM,2016-08-06,8
7,PERSEPOLIS FC,0,0,1,0,GOSTARESH,2016-08-06,8
8,PADIDEH,0,2,0,1,NAFT TEHRAN,2016-08-06,8
11,PAYKAN,1,2,0,1,TRACTOR SAZI,2016-08-07,8
12,TRACTOR SAZI,1,0,1,0,MACHINE SAZI TABRIZ,2016-08-11,8
14,GOSTARESH,1,0,0,1,ZOB AHAN,2016-08-11,8
15,PADIDEH,0,1,1,0,SAIPA,2016-08-11,8
13,ESTEGHLAL FC,0,1,1,0,PAYKAN,2016-08-11,8
17,SABA QOM,0,1,0,0,PERSEPOLIS FC,2016-08-11,8
18,SEPAHAN FC,0,0,0,1,SANAT NAFT,2016-08-11,8
16,NAFT TEHRAN,1,1,1,1,ESTEGHLAL KHUZESTAN,2016-08-11,8
19,FOOLAD FC,0,1,1,0,MASHHAD FC,2016-08-12,8
0,MASHHAD FC,0,0,1,0,GOSTARESH,2016-09-09,9
1,SANAT NAFT,1,1,0,1,NAFT TEHRAN,2016-09-09,9
4,ESTEGHLAL KHUZESTAN,0,0,0,0,PADIDEH,2016-09-10,9
5,ZOB AHAN,1,0,0,1,SABA QOM,2016-09-10,9
2,PERSEPOLIS FC,0,0,0,0,TRACTOR SAZI,2016-09-10,9
3,PAYKAN,1,0,0,1,SEPAHAN FC,2016-09-10,9
6,SAIPA,1,0,1,2,FOOLAD FC,2016-09-10,9
7,MACHINE SAZI TABRIZ,0,1,1,0,ESTEGHLAL FC,2016-09-11,9
13,ESTEGHLAL KHUZESTAN,0,0,1,1,SANAT NAFT,2016-09-15,9
12,TRACTOR SAZI,1,0,1,1,ZOB AHAN,2016-09-15,9
11,GOSTARESH,0,0,1,1,SAIPA,2016-09-15,9
8,SEPAHAN FC,1,0,0,0,MACHINE SAZI TABRIZ,2016-09-15,9
10,NAFT TEHRAN,0,0,0,0,PAYKAN,2016-09-15,9
9,SABA QOM,0,1,2,1,MASHHAD FC,2016-09-15,9
14,ESTEGHLAL FC,0,0,0,0,PERSEPOLIS FC,2016-09-16,9
15,PADIDEH,0,1,0,0,FOOLAD FC,2016-09-16,9
17,SAIPA,0,1,0,0,SABA QOM,2016-09-20,9
16,MASHHAD FC,0,1,0,2,TRACTOR SAZI,2016-09-20,9
19,ZOB AHAN,0,1,1,1,ESTEGHLAL FC,2016-09-20,9
18,PAYKAN,0,0,3,2,ESTEGHLAL KHUZESTAN,2016-09-20,9
23,PERSEPOLIS FC,1,1,2,0,SEPAHAN FC,2016-09-21,9
21,SANAT NAFT,2,0,1,3,PADIDEH,2016-09-21,9
20,FOOLAD FC,0,0,0,0,GOSTARESH,2016-09-21,9
22,MACHINE SAZI TABRIZ,0,1,1,1,NAFT TEHRAN,2016-09-21,9
0,SANAT NAFT,0,0,2,3,PAYKAN,2016-10-14,1
1,SABA QOM,0,2,0,0,FOOLAD FC,2016-10-14,1
4,TRACTOR SAZI,0,0,0,0,SAIPA,2016-10-15,1
2,ESTEGHLAL KHUZESTAN,1,1,2,0,MACHINE SAZI TABRIZ,2016-10-15,1
5,SEPAHAN FC,0,0,0,2,ZOB AHAN,2016-10-15,1
3,ESTEGHLAL FC,1,0,0,0,MASHHAD FC,2016-10-15,1
6,NAFT TEHRAN,0,2,0,1,PERSEPOLIS FC,2016-10-15,1
7,PADIDEH,0,1,0,2,GOSTARESH,2016-10-16,1
10,ZOB AHAN,1,0,0,2,NAFT TEHRAN,2016-10-20,1
9,PERSEPOLIS FC,0,1,1,0,ESTEGHLAL KHUZESTAN,2016-10-20,1
8,FOOLAD FC,1,1,1,1,TRACTOR SAZI,2016-10-20,1
14,MACHINE SAZI TABRIZ,0,0,0,3,SANAT NAFT,2016-10-21,1
11,PAYKAN,0,0,0,0,PADIDEH,2016-10-21,1
12,MASHHAD FC,0,1,1,1,SEPAHAN FC,2016-10-21,1
13,SAIPA,0,0,0,2,ESTEGHLAL FC,2016-10-21,1
15,GOSTARESH,0,0,0,0,SABA QOM,2016-10-21,1
20,ESTEGHLAL FC,1,0,0,1,FOOLAD FC,2016-10-27,1
17,TRACTOR SAZI,1,0,1,0,GOSTARESH,2016-10-27,1
18,SEPAHAN FC,1,0,0,1,SAIPA,2016-10-27,1
19,PADIDEH,1,0,2,2,SABA QOM,2016-10-27,1
16,PAYKAN,2,1,2,0,MACHINE SAZI TABRIZ,2016-10-27,1
22,SANAT NAFT,0,0,0,1,PERSEPOLIS FC,2016-10-28,1
21,NAFT TEHRAN,1,1,1,1,MASHHAD FC,2016-10-28,1
23,ESTEGHLAL KHUZESTAN,0,0,0,2,ZOB AHAN,2016-10-28,1
2,PERSEPOLIS FC,0,0,0,0,PAYKAN,2016-11-24,1
3,MASHHAD FC,0,0,0,0,ESTEGHLAL KHUZESTAN,2016-11-24,1
0,FOOLAD FC,1,1,0,0,SEPAHAN FC,2016-11-24,1
1,SAIPA,0,2,0,0,NAFT TEHRAN,2016-11-24,1
5,SABA QOM,0,0,1,2,TRACTOR SAZI,2016-11-25,1
6,ZOB AHAN,1,0,2,0,SANAT NAFT,2016-11-25,1
4,MACHINE SAZI TABRIZ,0,1,0,0,PADIDEH,2016-11-25,1
7,GOSTARESH,1,2,1,0,ESTEGHLAL FC,2016-11-25,1
3,NAFT TEHRAN,0,1,2,3,FOOLAD FC,2016-12-01,1
1,ESTEGHLAL KHUZESTAN,1,0,1,0,SAIPA,2016-12-01,1
0,SEPAHAN FC,1,2,0,0,GOSTARESH,2016-12-01,1
2,ESTEGHLAL FC,1,0,1,0,SABA QOM,2016-12-01,1
4,PADIDEH,0,1,1,0,TRACTOR SAZI,2016-12-02,1
5,SANAT NAFT,1,0,0,0,MASHHAD FC,2016-12-02,1
6,PAYKAN,0,1,0,2,ZOB AHAN,2016-12-02,1
7,MACHINE SAZI TABRIZ,0,1,0,0,PERSEPOLIS FC,2016-12-02,1
8,ZOB AHAN,2,0,0,1,MACHINE SAZI TABRIZ,2016-12-08,1
9,GOSTARESH,1,0,0,1,NAFT TEHRAN,2016-12-08,1
10,SAIPA,1,0,0,0,SANAT NAFT,2016-12-08,1
14,TRACTOR SAZI,0,1,2,0,ESTEGHLAL FC,2016-12-09,1
11,SABA QOM,0,2,1,2,SEPAHAN FC,2016-12-09,1
12,FOOLAD FC,1,0,0,0,ESTEGHLAL KHUZESTAN,2016-12-09,1
13,MASHHAD FC,0,0,0,1,PAYKAN,2016-12-09,1
15,PERSEPOLIS FC,1,1,1,0,PADIDEH,2016-12-10,1
16,PAYKAN,0,0,1,0,SAIPA,2016-12-15,1
17,NAFT TEHRAN,0,0,1,0,SABA QOM,2016-12-15,1
18,PADIDEH,0,0,0,1,ESTEGHLAL FC,2016-12-15,1
19,ESTEGHLAL KHUZESTAN,1,1,0,1,GOSTARESH,2016-12-16,1
20,SEPAHAN FC,1,0,1,1,TRACTOR SAZI,2016-12-16,1
21,MACHINE SAZI TABRIZ,0,1,0,0,MASHHAD FC,2016-12-16,1
22,SANAT NAFT,0,1,0,2,FOOLAD FC,2016-12-16,1
23,PERSEPOLIS FC,0,0,0,1,ZOB AHAN,2016-12-16,1
24,FOOLAD FC,1,2,0,0,PAYKAN,2016-12-23,1
25,SABA QOM,0,0,0,1,ESTEGHLAL KHUZESTAN,2016-12-23,1
26,MASHHAD FC,0,2,0,1,PERSEPOLIS FC,2016-12-23,1
27,ESTEGHLAL FC,0,0,1,1,SEPAHAN FC,2016-12-25,1
28,TRACTOR SAZI,0,0,2,0,NAFT TEHRAN,2016-12-25,1
29,GOSTARESH,1,0,0,0,SANAT NAFT,2016-12-26,1
30,ZOB AHAN,0,0,1,1,PADIDEH,2016-12-26,1
