,AwayTeam,FTAG,FTHG,HTAG,HTHG,HomeTeam,data,jornada
0,DANDENONG THUNDER,4,2,0,0,OAKLEIGH CANNONS,2014-05-02,5
1,SOUTH MELBOURNE,0,1,0,2,BALLARAT RED DEVILS,2014-05-03,5
2,BENTLEIGH GREENS,2,1,1,1,GREEN GULLY,2014-05-03,5
3,MELBOURNE KNIGHTS,2,0,0,0,HUME CITY,2014-05-04,5
4,PORT MELBOURNE,1,1,2,1,NORTHCOTE CITY,2014-05-04,5
5,GOULBURN VALLEY SUNS,1,0,1,1,WERRIBEE CITY,2014-05-04,5
6,PASCOE VALE,3,0,2,0,HEIDELBERG UNITED,2014-05-04,5
7,MELBOURNE KNIGHTS,2,1,1,0,OAKLEIGH CANNONS,2014-05-09,5
8,DANDENONG THUNDER,1,0,2,1,NORTHCOTE CITY,2014-05-10,5
9,PORT MELBOURNE,0,0,3,1,BALLARAT RED DEVILS,2014-05-10,5
10,GOULBURN VALLEY SUNS,1,3,1,0,HUME CITY,2014-05-11,5
11,PASCOE VALE,1,0,0,1,WERRIBEE CITY,2014-05-11,5
12,BENTLEIGH GREENS,2,0,1,0,SOUTH MELBOURNE,2014-05-11,5
13,GREEN GULLY,2,2,0,0,HEIDELBERG UNITED,2014-05-11,5
14,HUME CITY,0,1,1,0,PORT MELBOURNE,2014-05-16,5
15,GREEN GULLY,2,1,2,0,BALLARAT RED DEVILS,2014-05-17,5
16,BENTLEIGH GREENS,1,0,1,0,GOULBURN VALLEY SUNS,2014-05-17,5
17,NORTHCOTE CITY,0,1,1,0,OAKLEIGH CANNONS,2014-05-18,5
18,PASCOE VALE,0,1,0,0,SOUTH MELBOURNE,2014-05-18,5
19,WERRIBEE CITY,0,0,3,0,DANDENONG THUNDER,2014-05-18,5
20,MELBOURNE KNIGHTS,0,1,0,0,HEIDELBERG UNITED,2014-05-18,5
21,HEIDELBERG UNITED,0,1,2,1,BENTLEIGH GREENS,2014-05-23,5
22,OAKLEIGH CANNONS,1,1,0,0,PASCOE VALE,2014-05-23,5
23,BALLARAT RED DEVILS,3,0,1,0,DANDENONG THUNDER,2014-05-24,5
24,GREEN GULLY,0,0,3,0,HUME CITY,2014-05-25,5
25,PORT MELBOURNE,3,0,0,1,MELBOURNE KNIGHTS,2014-05-25,5
26,GOULBURN VALLEY SUNS,1,2,0,0,NORTHCOTE CITY,2014-05-25,5
27,SOUTH MELBOURNE,0,0,0,1,WERRIBEE CITY,2014-05-25,5
28,BENTLEIGH GREENS,0,2,2,2,PORT MELBOURNE,2014-05-30,5
29,HUME CITY,1,0,1,2,BALLARAT RED DEVILS,2014-05-31,5
30,MELBOURNE KNIGHTS,1,0,0,0,GREEN GULLY,2014-05-31,5
31,PASCOE VALE,0,0,1,1,GOULBURN VALLEY SUNS,2014-05-31,5
32,WERRIBEE CITY,1,1,0,0,OAKLEIGH CANNONS,2014-05-31,5
0,NORTHCOTE CITY,1,0,0,1,HEIDELBERG UNITED,2014-06-01,6
1,DANDENONG THUNDER,0,2,0,3,SOUTH MELBOURNE,2014-06-01,6
2,SOUTH MELBOURNE,0,0,0,3,OAKLEIGH CANNONS,2014-06-06,6
3,PASCOE VALE,2,0,0,0,PORT MELBOURNE,2014-06-06,6
4,NORTHCOTE CITY,1,5,1,1,GREEN GULLY,2014-06-07,6
5,DANDENONG THUNDER,3,0,1,0,GOULBURN VALLEY SUNS,2014-06-07,6
6,BENTLEIGH GREENS,0,0,3,0,HUME CITY,2014-06-08,6
7,BALLARAT RED DEVILS,1,2,1,2,MELBOURNE KNIGHTS,2014-06-08,6
8,WERRIBEE CITY,1,1,1,1,HEIDELBERG UNITED,2014-06-08,6
9,MELBOURNE KNIGHTS,0,0,0,1,BENTLEIGH GREENS,2014-06-13,6
10,GREEN GULLY,0,0,0,1,PASCOE VALE,2014-06-13,6
11,OAKLEIGH CANNONS,0,0,1,0,BALLARAT RED DEVILS,2014-06-14,6
12,HEIDELBERG UNITED,3,0,2,2,DANDENONG THUNDER,2014-06-14,6
13,HUME CITY,1,0,1,0,NORTHCOTE CITY,2014-06-15,6
14,PORT MELBOURNE,0,1,0,1,WERRIBEE CITY,2014-06-15,6
15,GOULBURN VALLEY SUNS,1,1,0,0,SOUTH MELBOURNE,2014-06-15,6
16,HUME CITY,0,3,2,1,PASCOE VALE,2014-06-20,6
17,BENTLEIGH GREENS,0,2,3,0,BALLARAT RED DEVILS,2014-06-21,6
18,GOULBURN VALLEY SUNS,0,3,1,1,OAKLEIGH CANNONS,2014-06-21,6
19,PORT MELBOURNE,1,0,2,1,DANDENONG THUNDER,2014-06-21,6
20,MELBOURNE KNIGHTS,0,1,1,0,NORTHCOTE CITY,2014-06-22,6
21,GREEN GULLY,2,0,1,0,WERRIBEE CITY,2014-06-22,6
22,HEIDELBERG UNITED,0,3,0,0,SOUTH MELBOURNE,2014-06-22,6
23,NORTHCOTE CITY,1,0,1,1,BENTLEIGH GREENS,2014-06-27,6
24,GOULBURN VALLEY SUNS,0,1,0,2,BALLARAT RED DEVILS,2014-06-28,6
25,DANDENONG THUNDER,1,0,1,2,GREEN GULLY,2014-06-29,6
26,WERRIBEE CITY,0,2,0,1,HUME CITY,2014-06-29,6
27,PASCOE VALE,1,1,0,1,MELBOURNE KNIGHTS,2014-06-29,6
28,OAKLEIGH CANNONS,0,1,1,0,HEIDELBERG UNITED,2014-06-29,6
29,PORT MELBOURNE,1,2,0,0,SOUTH MELBOURNE,2014-06-29,6
0,PORT MELBOURNE,0,1,0,3,OAKLEIGH CANNONS,2014-07-04,7
1,BENTLEIGH GREENS,0,0,0,0,PASCOE VALE,2014-07-04,7
2,NORTHCOTE CITY,1,0,0,0,BALLARAT RED DEVILS,2014-07-05,7
3,DANDENONG THUNDER,0,1,0,0,HUME CITY,2014-07-06,7
4,MELBOURNE KNIGHTS,2,0,2,2,WERRIBEE CITY,2014-07-06,7
5,GOULBURN VALLEY SUNS,0,2,0,3,HEIDELBERG UNITED,2014-07-06,7
6,GREEN GULLY,0,1,0,0,SOUTH MELBOURNE,2014-07-06,7
7,WERRIBEE CITY,0,2,0,2,BENTLEIGH GREENS,2014-07-11,7
8,HEIDELBERG UNITED,2,2,3,3,BALLARAT RED DEVILS,2014-07-12,7
9,OAKLEIGH CANNONS,2,1,3,0,GREEN GULLY,2014-07-12,7
10,GOULBURN VALLEY SUNS,0,0,0,1,PORT MELBOURNE,2014-07-12,7
11,MELBOURNE KNIGHTS,3,0,1,1,DANDENONG THUNDER,2014-07-12,7
12,PASCOE VALE,1,1,0,0,NORTHCOTE CITY,2014-07-13,7
13,HUME CITY,0,0,0,2,SOUTH MELBOURNE,2014-07-13,7
14,HUME CITY,0,0,2,1,OAKLEIGH CANNONS,2014-07-18,7
15,GREEN GULLY,0,3,2,0,GOULBURN VALLEY SUNS,2014-07-19,7
16,BENTLEIGH GREENS,0,0,1,0,DANDENONG THUNDER,2014-07-19,7
17,NORTHCOTE CITY,1,1,2,0,WERRIBEE CITY,2014-07-20,7
18,PORT MELBOURNE,0,0,0,0,HEIDELBERG UNITED,2014-07-20,7
19,MELBOURNE KNIGHTS,1,3,2,1,SOUTH MELBOURNE,2014-07-20,7
20,GREEN GULLY,0,0,1,1,PORT MELBOURNE,2014-07-25,7
21,SOUTH MELBOURNE,0,0,1,1,NORTHCOTE CITY,2014-07-26,7
22,MELBOURNE KNIGHTS,1,0,0,1,GOULBURN VALLEY SUNS,2014-07-26,7
23,PASCOE VALE,2,1,0,0,DANDENONG THUNDER,2014-07-26,7
24,BALLARAT RED DEVILS,1,0,2,1,WERRIBEE CITY,2014-07-27,7
25,HUME CITY,0,0,0,2,HEIDELBERG UNITED,2014-07-27,7
26,BENTLEIGH GREENS,0,2,1,0,OAKLEIGH CANNONS,2014-07-27,7
27,WERRIBEE CITY,0,0,2,0,PASCOE VALE,2014-07-29,7
28,NORTHCOTE CITY,1,1,0,0,DANDENONG THUNDER,2014-07-30,7
29,HEIDELBERG UNITED,1,0,0,1,GREEN GULLY,2014-07-30,7
30,BALLARAT RED DEVILS,1,2,0,1,PORT MELBOURNE,2014-07-30,7
0,SOUTH MELBOURNE,1,0,2,0,PASCOE VALE,2014-08-01,8
1,GOULBURN VALLEY SUNS,1,2,1,0,BENTLEIGH GREENS,2014-08-02,8
2,BALLARAT RED DEVILS,0,1,1,1,GREEN GULLY,2014-08-02,8
3,PORT MELBOURNE,0,1,1,1,HUME CITY,2014-08-03,8
4,HEIDELBERG UNITED,0,0,2,0,MELBOURNE KNIGHTS,2014-08-03,8
5,OAKLEIGH CANNONS,1,1,2,0,NORTHCOTE CITY,2014-08-03,8
6,DANDENONG THUNDER,0,0,1,2,WERRIBEE CITY,2014-08-03,8
7,SOUTH MELBOURNE,0,1,1,1,BENTLEIGH GREENS,2014-08-06,8
8,MELBOURNE KNIGHTS,0,0,1,0,PORT MELBOURNE,2014-08-08,8
9,DANDENONG THUNDER,0,0,1,0,BALLARAT RED DEVILS,2014-08-09,8
10,HUME CITY,1,0,0,0,GREEN GULLY,2014-08-09,8
11,BENTLEIGH GREENS,1,1,1,1,HEIDELBERG UNITED,2014-08-09,8
12,NORTHCOTE CITY,2,1,1,0,GOULBURN VALLEY SUNS,2014-08-09,8
13,PASCOE VALE,0,1,0,2,OAKLEIGH CANNONS,2014-08-10,8
14,WERRIBEE CITY,0,3,0,1,SOUTH MELBOURNE,2014-08-10,8
15,PORT MELBOURNE,0,3,0,2,BENTLEIGH GREENS,2014-08-15,8
16,GOULBURN VALLEY SUNS,0,0,0,3,PASCOE VALE,2014-08-16,8
17,SOUTH MELBOURNE,0,0,1,0,DANDENONG THUNDER,2014-08-16,8
18,BALLARAT RED DEVILS,1,0,0,0,HUME CITY,2014-08-17,8
19,GREEN GULLY,0,4,3,0,MELBOURNE KNIGHTS,2014-08-17,8
20,HEIDELBERG UNITED,0,1,0,0,NORTHCOTE CITY,2014-08-17,8
21,OAKLEIGH CANNONS,0,0,1,0,WERRIBEE CITY,2014-08-17,8
22,OAKLEIGH CANNONS,4,1,0,0,BENTLEIGH GREENS,2014-08-22,8
23,DANDENONG THUNDER,0,0,0,0,PASCOE VALE,2014-08-22,8
24,WERRIBEE CITY,2,0,0,1,BALLARAT RED DEVILS,2014-08-23,8
25,PORT MELBOURNE,2,0,0,1,GREEN GULLY,2014-08-23,8
26,HEIDELBERG UNITED,0,0,2,0,HUME CITY,2014-08-24,8
27,GOULBURN VALLEY SUNS,0,3,0,0,MELBOURNE KNIGHTS,2014-08-24,8
28,NORTHCOTE CITY,0,1,1,1,SOUTH MELBOURNE,2014-08-24,8
29,BALLARAT RED DEVILS,1,1,0,0,BENTLEIGH GREENS,2014-08-30,8
30,HUME CITY,1,1,3,0,GOULBURN VALLEY SUNS,2014-08-30,8
0,OAKLEIGH CANNONS,0,0,0,1,MELBOURNE KNIGHTS,2014-09-03,9
1,HUME CITY,0,0,1,1,BENTLEIGH GREENS,2014-09-05,9
2,PORT MELBOURNE,0,1,1,0,PASCOE VALE,2014-09-05,9
3,GREEN GULLY,1,0,0,0,NORTHCOTE CITY,2014-09-06,9
4,MELBOURNE KNIGHTS,0,0,0,2,BALLARAT RED DEVILS,2014-09-06,9
5,GOULBURN VALLEY SUNS,0,5,3,1,DANDENONG THUNDER,2014-09-06,9
6,HEIDELBERG UNITED,0,0,0,0,WERRIBEE CITY,2014-09-07,9
7,OAKLEIGH CANNONS,1,1,1,1,SOUTH MELBOURNE,2014-09-07,9
8,PASCOE VALE,0,0,0,2,BALLARAT RED DEVILS,2014-09-10,9
9,BENTLEIGH GREENS,0,2,0,0,MELBOURNE KNIGHTS,2014-09-12,9
10,SOUTH MELBOURNE,2,0,2,1,GOULBURN VALLEY SUNS,2014-09-14,9
11,PASCOE VALE,1,2,2,0,GREEN GULLY,2014-09-14,9
12,DANDENONG THUNDER,0,0,1,0,HEIDELBERG UNITED,2014-09-14,9
13,NORTHCOTE CITY,0,0,1,0,HUME CITY,2014-09-14,9
14,BALLARAT RED DEVILS,0,0,0,2,OAKLEIGH CANNONS,2014-09-14,9
15,WERRIBEE CITY,0,0,1,1,PORT MELBOURNE,2014-09-14,9
0,SOUTH MELBOURNE,2,0,1,0,HEIDELBERG UNITED,2014-03-13,3
1,NORTHCOTE CITY,1,2,1,1,MELBOURNE KNIGHTS,2014-03-14,3
2,DANDENONG THUNDER,2,2,0,0,PORT MELBOURNE,2014-03-14,3
3,OAKLEIGH CANNONS,1,0,0,0,GOULBURN VALLEY SUNS,2014-03-15,3
4,WERRIBEE CITY,0,2,0,2,GREEN GULLY,2014-03-16,3
5,PASCOE VALE,0,2,0,1,HUME CITY,2014-03-16,3
6,HEIDELBERG UNITED,1,0,0,2,OAKLEIGH CANNONS,2014-03-28,3
7,MELBOURNE KNIGHTS,0,0,2,0,PASCOE VALE,2014-03-28,3
8,SOUTH MELBOURNE,1,1,2,1,PORT MELBOURNE,2014-03-28,3
9,BALLARAT RED DEVILS,1,1,2,1,GOULBURN VALLEY SUNS,2014-03-29,3
10,GREEN GULLY,0,0,0,1,DANDENONG THUNDER,2014-03-29,3
11,BENTLEIGH GREENS,2,1,1,1,NORTHCOTE CITY,2014-03-30,3
12,HUME CITY,1,1,0,1,WERRIBEE CITY,2014-03-30,3
0,PASCOE VALE,1,0,0,1,BENTLEIGH GREENS,2014-04-04,4
1,OAKLEIGH CANNONS,1,1,1,1,PORT MELBOURNE,2014-04-04,4
2,SOUTH MELBOURNE,4,0,1,3,GREEN GULLY,2014-04-05,4
3,BALLARAT RED DEVILS,2,0,1,1,NORTHCOTE CITY,2014-04-05,4
4,HUME CITY,0,1,0,0,DANDENONG THUNDER,2014-04-05,4
5,HEIDELBERG UNITED,3,1,3,1,GOULBURN VALLEY SUNS,2014-04-05,4
6,WERRIBEE CITY,0,0,2,1,MELBOURNE KNIGHTS,2014-04-06,4
7,GREEN GULLY,0,3,1,3,OAKLEIGH CANNONS,2014-04-11,4
8,NORTHCOTE CITY,0,0,1,0,PASCOE VALE,2014-04-11,4
9,PORT MELBOURNE,1,0,1,1,GOULBURN VALLEY SUNS,2014-04-12,4
10,SOUTH MELBOURNE,0,0,3,0,HUME CITY,2014-04-13,4
11,DANDENONG THUNDER,0,0,2,1,MELBOURNE KNIGHTS,2014-04-13,4
12,BENTLEIGH GREENS,1,0,0,0,WERRIBEE CITY,2014-04-13,4
13,GREEN GULLY,0,2,1,1,BENTLEIGH GREENS,2014-04-16,4
14,HUME CITY,0,0,1,0,MELBOURNE KNIGHTS,2014-04-16,4
15,NORTHCOTE CITY,1,0,0,0,PORT MELBOURNE,2014-04-16,4
16,OAKLEIGH CANNONS,0,0,0,0,DANDENONG THUNDER,2014-04-17,4
17,HEIDELBERG UNITED,1,1,0,1,PASCOE VALE,2014-04-17,4
18,BALLARAT RED DEVILS,0,1,0,1,SOUTH MELBOURNE,2014-04-17,4
19,WERRIBEE CITY,4,1,0,2,GOULBURN VALLEY SUNS,2014-04-19,4
20,BALLARAT RED DEVILS,0,1,2,3,HEIDELBERG UNITED,2014-04-21,4
21,DANDENONG THUNDER,0,0,1,3,BENTLEIGH GREENS,2014-04-25,4
22,HEIDELBERG UNITED,2,0,2,0,PORT MELBOURNE,2014-04-25,4
23,GOULBURN VALLEY SUNS,1,1,0,1,GREEN GULLY,2014-04-26,4
24,WERRIBEE CITY,0,2,1,2,NORTHCOTE CITY,2014-04-26,4
25,BALLARAT RED DEVILS,1,0,1,2,PASCOE VALE,2014-04-26,4
26,OAKLEIGH CANNONS,2,0,0,0,HUME CITY,2014-04-27,4
27,SOUTH MELBOURNE,0,0,1,0,MELBOURNE KNIGHTS,2014-04-27,4
