Unnamed: 0,AwayTeam,FTAG,FTHG,HTAG,HTHG,HomeTeam,data,jornada
0,FOOLAD FC,0,0,1,1,ESTEGHLAL KHUZESTAN,2014-01-03,1
1,NAFT TEHRAN,0,0,0,0,PERSEPOLIS FC,2014-01-03,1
2,MALAVAN,0,1,1,0,ZOB AHAN,2014-01-03,1
3,SAIPA,1,1,0,2,MES KERMAN,2014-01-04,1
4,FAJR SEPASI,0,0,0,0,TRACTOR SAZI,2014-01-04,1
5,GOSTARESH,1,0,1,1,DAMASH GILAN,2014-01-04,1
6,ESTEGHLAL FC,0,0,1,0,RAH AHAN,2014-01-04,1
7,SEPAHAN FC,0,0,0,1,SABA QOM,2014-01-04,1
8,ZOB AHAN,0,0,0,1,NAFT TEHRAN,2014-01-09,1
12,MES KERMAN,2,0,1,0,MALAVAN,2014-01-11,1
9,RAH AHAN,2,3,0,0,GOSTARESH,2014-01-11,1
11,PERSEPOLIS FC,1,1,0,1,FOOLAD FC,2014-01-11,1
14,DAMASH GILAN,2,0,0,0,SEPAHAN FC,2014-01-11,1
13,TRACTOR SAZI,2,1,3,0,SAIPA,2014-01-11,1
10,SABA QOM,0,1,1,1,FAJR SEPASI,2014-01-11,1
15,ESTEGHLAL KHUZESTAN,1,0,0,0,ESTEGHLAL FC,2014-01-11,1
18,MALAVAN,0,1,2,0,SAIPA,2014-01-16,1
20,FOOLAD FC,0,0,0,0,ZOB AHAN,2014-01-16,1
19,SABA QOM,1,0,1,0,TRACTOR SAZI,2014-01-16,1
21,GOSTARESH,3,0,1,0,ESTEGHLAL KHUZESTAN,2014-01-16,1
17,SEPAHAN FC,1,0,1,0,RAH AHAN,2014-01-16,1
16,FAJR SEPASI,0,1,2,1,DAMASH GILAN,2014-01-16,1
22,ESTEGHLAL FC,0,0,0,0,PERSEPOLIS FC,2014-01-17,1
25,MES KERMAN,1,0,0,0,FOOLAD FC,2014-01-21,1
24,SAIPA,1,1,1,0,NAFT TEHRAN,2014-01-21,1
23,PERSEPOLIS FC,1,0,0,0,GOSTARESH,2014-01-21,1
29,NAFT TEHRAN,0,0,0,1,MES KERMAN,2014-01-26,1
31,ESTEGHLAL KHUZESTAN,1,2,1,0,SEPAHAN FC,2014-01-26,1
30,DAMASH GILAN,2,1,1,1,SABA QOM,2014-01-26,1
28,TRACTOR SAZI,0,1,1,0,MALAVAN,2014-01-26,1
26,ZOB AHAN,1,0,0,1,ESTEGHLAL FC,2014-01-26,1
27,RAH AHAN,0,0,0,1,FAJR SEPASI,2014-01-26,1
34,FOOLAD FC,0,0,0,0,SAIPA,2014-01-31,1
33,SABA QOM,0,0,0,0,RAH AHAN,2014-01-31,1
32,NAFT TEHRAN,1,1,0,0,MALAVAN,2014-01-31,1
39,SEPAHAN FC,0,2,0,0,PERSEPOLIS FC,2014-01-31,1
36,FAJR SEPASI,0,0,0,0,ESTEGHLAL KHUZESTAN,2014-01-31,1
37,ESTEGHLAL FC,1,0,0,1,MES KERMAN,2014-01-31,1
35,GOSTARESH,0,0,0,0,ZOB AHAN,2014-01-31,1
38,DAMASH GILAN,0,0,0,0,TRACTOR SAZI,2014-01-31,1
1,ESTEGHLAL KHUZESTAN,1,0,0,1,SABA QOM,2014-02-07,2
0,RAH AHAN,0,0,1,1,DAMASH GILAN,2014-02-07,2
2,ZOB AHAN,0,0,0,1,SEPAHAN FC,2014-02-07,2
5,MALAVAN,0,0,0,1,FOOLAD FC,2014-02-09,2
7,SAIPA,0,0,0,2,ESTEGHLAL FC,2014-02-09,2
6,TRACTOR SAZI,0,0,0,3,NAFT TEHRAN,2014-02-09,2
3,PERSEPOLIS FC,0,0,1,1,FAJR SEPASI,2014-02-09,2
4,MES KERMAN,0,0,0,0,GOSTARESH,2014-02-09,2
9,FOOLAD FC,1,1,0,0,NAFT TEHRAN,2014-02-16,2
8,DAMASH GILAN,0,0,1,1,ESTEGHLAL KHUZESTAN,2014-02-16,2
11,FAJR SEPASI,1,0,0,0,ZOB AHAN,2014-02-16,2
10,GOSTARESH,0,0,1,1,SAIPA,2014-02-16,2
12,ESTEGHLAL FC,0,2,2,2,MALAVAN,2014-02-19,2
13,SEPAHAN FC,0,0,0,0,MES KERMAN,2014-02-20,2
14,RAH AHAN,2,0,1,0,TRACTOR SAZI,2014-02-20,2
15,SABA QOM,0,2,1,1,PERSEPOLIS FC,2014-02-21,2
4,MALAVAN,0,0,2,1,GOSTARESH,2014-03-27,3
3,TRACTOR SAZI,1,1,0,1,FOOLAD FC,2014-03-27,3
5,ESTEGHLAL KHUZESTAN,0,0,0,1,RAH AHAN,2014-03-27,3
7,SAIPA,1,1,1,1,SEPAHAN FC,2014-03-27,3
1,NAFT TEHRAN,0,0,1,0,ESTEGHLAL FC,2014-03-27,3
6,ZOB AHAN,0,0,1,2,SABA QOM,2014-03-27,3
2,MES KERMAN,0,0,1,1,FAJR SEPASI,2014-03-27,3
0,PERSEPOLIS FC,1,0,0,0,DAMASH GILAN,2014-03-27,3
6,ESTEGHLAL KHUZESTAN,0,1,0,0,TRACTOR SAZI,2014-04-06,4
5,FAJR SEPASI,0,0,0,0,SAIPA,2014-04-06,4
7,DAMASH GILAN,0,1,1,1,ZOB AHAN,2014-04-06,4
4,RAH AHAN,1,1,1,1,PERSEPOLIS FC,2014-04-06,4
0,ESTEGHLAL FC,1,0,0,0,FOOLAD FC,2014-04-06,4
3,GOSTARESH,0,2,1,2,NAFT TEHRAN,2014-04-06,4
2,SABA QOM,0,0,0,0,MES KERMAN,2014-04-06,4
1,SEPAHAN FC,1,1,2,1,MALAVAN,2014-04-06,4
13,ZOB AHAN,0,0,1,0,RAH AHAN,2014-04-11,4
9,TRACTOR SAZI,1,1,2,0,ESTEGHLAL FC,2014-04-11,4
11,MALAVAN,0,1,1,1,FAJR SEPASI,2014-04-11,4
15,NAFT TEHRAN,0,0,0,1,SEPAHAN FC,2014-04-11,4
14,SAIPA,0,0,0,0,SABA QOM,2014-04-11,4
10,PERSEPOLIS FC,1,0,0,0,ESTEGHLAL KHUZESTAN,2014-04-11,4
8,MES KERMAN,1,0,0,1,DAMASH GILAN,2014-04-11,4
12,FOOLAD FC,1,0,0,0,GOSTARESH,2014-04-11,4
2,ZOB AHAN,0,0,1,2,SABA QOM,2014-07-31,7
1,ESTEGHLAL FC,0,1,2,0,RAH AHAN,2014-07-31,7
0,FOOLAD FC,0,1,1,1,TRACTOR SAZI,2014-07-31,7
3,GOSTARESH,0,0,1,1,ESTEGHLAL KHUZESTAN,2014-08-01,8
2,PAYKAN,0,1,0,1,SEPAHAN FC,2014-08-01,8
4,NAFT TEHRAN,1,1,0,0,PERSEPOLIS FC,2014-08-01,8
1,NAFT MASJED SOLEYMAN,0,0,0,0,SAIPA,2014-08-01,8
0,MALAVAN,0,0,0,0,PADIDEH,2014-08-01,8
6,RAH AHAN,0,0,2,1,NAFT TEHRAN,2014-08-07,8
7,PERSEPOLIS FC,0,1,0,1,FOOLAD FC,2014-08-07,8
8,SAIPA,0,0,0,0,PAYKAN,2014-08-07,8
5,SEPAHAN FC,1,0,1,0,GOSTARESH,2014-08-07,8
10,TRACTOR SAZI,0,0,0,0,ZOB AHAN,2014-08-08,8
12,PADIDEH,1,0,2,0,NAFT MASJED SOLEYMAN,2014-08-08,8
11,ESTEGHLAL KHUZESTAN,0,0,0,1,ESTEGHLAL FC,2014-08-08,8
9,SABA QOM,0,0,0,0,MALAVAN,2014-08-08,8
17,NAFT MASJED SOLEYMAN,0,0,0,0,PAYKAN,2014-08-14,8
15,GOSTARESH,0,0,0,0,SAIPA,2014-08-14,8
16,ESTEGHLAL FC,1,2,0,1,SEPAHAN FC,2014-08-14,8
14,FOOLAD FC,0,0,1,0,RAH AHAN,2014-08-14,8
13,SABA QOM,0,0,1,1,PADIDEH,2014-08-14,8
18,MALAVAN,0,1,0,0,TRACTOR SAZI,2014-08-15,8
19,ZOB AHAN,0,0,0,1,PERSEPOLIS FC,2014-08-15,8
20,NAFT TEHRAN,0,0,2,1,ESTEGHLAL KHUZESTAN,2014-08-15,8
26,NAFT MASJED SOLEYMAN,0,1,0,1,SABA QOM,2014-08-19,8
22,PAYKAN,0,0,0,1,GOSTARESH,2014-08-19,8
21,TRACTOR SAZI,0,0,0,1,PADIDEH,2014-08-19,8
27,ESTEGHLAL KHUZESTAN,0,1,0,0,FOOLAD FC,2014-08-19,8
23,SEPAHAN FC,0,2,0,1,NAFT TEHRAN,2014-08-19,8
24,RAH AHAN,2,1,0,1,ZOB AHAN,2014-08-19,8
25,SAIPA,1,1,1,2,ESTEGHLAL FC,2014-08-19,8
28,PERSEPOLIS FC,1,2,0,0,MALAVAN,2014-08-20,8
31,FOOLAD FC,0,0,1,1,SEPAHAN FC,2014-08-24,8
29,NAFT TEHRAN,0,0,1,2,SAIPA,2014-08-24,8
30,SABA QOM,2,1,0,3,TRACTOR SAZI,2014-08-24,8
34,GOSTARESH,0,0,1,1,NAFT MASJED SOLEYMAN,2014-08-24,8
32,ESTEGHLAL FC,1,0,2,0,PAYKAN,2014-08-24,8
33,ZOB AHAN,0,0,1,1,ESTEGHLAL KHUZESTAN,2014-08-24,8
35,PADIDEH,1,0,0,1,PERSEPOLIS FC,2014-08-25,8
36,MALAVAN,0,1,0,0,RAH AHAN,2014-08-25,8
38,NAFT MASJED SOLEYMAN,0,1,0,2,TRACTOR SAZI,2014-08-29,8
37,PAYKAN,0,0,0,0,NAFT TEHRAN,2014-08-29,8
40,SEPAHAN FC,0,0,1,1,ZOB AHAN,2014-08-29,8
39,GOSTARESH,0,2,0,1,ESTEGHLAL FC,2014-08-29,8
41,SAIPA,0,0,0,0,FOOLAD FC,2014-08-29,8
43,ESTEGHLAL KHUZESTAN,1,0,0,1,MALAVAN,2014-08-30,8
44,PERSEPOLIS FC,1,0,1,0,SABA QOM,2014-08-30,8
42,RAH AHAN,0,1,0,2,PADIDEH,2014-08-30,8
3,PADIDEH,0,0,1,1,ESTEGHLAL KHUZESTAN,2014-09-04,9
0,NAFT TEHRAN,0,0,1,1,GOSTARESH,2014-09-04,9
1,ESTEGHLAL FC,1,0,1,0,NAFT MASJED SOLEYMAN,2014-09-04,9
2,MALAVAN,1,1,0,0,SEPAHAN FC,2014-09-04,9
7,SABA QOM,1,0,1,2,RAH AHAN,2014-09-05,9
6,TRACTOR SAZI,0,1,3,0,PERSEPOLIS FC,2014-09-05,9
4,ZOB AHAN,0,1,0,0,SAIPA,2014-09-05,9
5,FOOLAD FC,0,1,0,0,PAYKAN,2014-09-05,9
9,ESTEGHLAL FC,0,1,0,1,NAFT TEHRAN,2014-09-11,9
8,SEPAHAN FC,0,0,1,0,PADIDEH,2014-09-11,9
10,GOSTARESH,0,0,0,1,FOOLAD FC,2014-09-11,9
11,SAIPA,2,0,0,0,MALAVAN,2014-09-12,9
12,PAYKAN,0,0,0,1,ZOB AHAN,2014-09-12,9
13,ESTEGHLAL KHUZESTAN,0,1,2,0,SABA QOM,2014-09-12,9
14,RAH AHAN,1,1,0,3,TRACTOR SAZI,2014-09-12,9
15,NAFT MASJED SOLEYMAN,1,0,0,1,PERSEPOLIS FC,2014-09-12,9
18,TRACTOR SAZI,1,1,1,1,ESTEGHLAL KHUZESTAN,2014-09-18,9
16,PERSEPOLIS FC,2,0,0,1,RAH AHAN,2014-09-18,9
17,SABA QOM,1,0,0,1,SEPAHAN FC,2014-09-18,9
22,FOOLAD FC,0,0,1,0,ESTEGHLAL FC,2014-09-19,9
21,NAFT TEHRAN,0,0,2,0,NAFT MASJED SOLEYMAN,2014-09-19,9
20,PADIDEH,0,1,0,3,SAIPA,2014-09-19,9
23,MALAVAN,0,0,0,1,PAYKAN,2014-09-19,9
19,ZOB AHAN,0,1,2,2,GOSTARESH,2014-09-19,9
26,SAIPA,0,1,0,0,SABA QOM,2014-09-25,9
27,ESTEGHLAL KHUZESTAN,1,2,0,0,PERSEPOLIS FC,2014-09-25,9
24,GOSTARESH,1,0,0,1,MALAVAN,2014-09-25,9
25,NAFT MASJED SOLEYMAN,1,1,1,1,RAH AHAN,2014-09-25,9
29,NAFT TEHRAN,1,1,1,1,FOOLAD FC,2014-09-26,9
31,ESTEGHLAL FC,0,1,1,1,ZOB AHAN,2014-09-26,9
28,PAYKAN,1,1,1,0,PADIDEH,2014-09-26,9
30,SEPAHAN FC,0,0,1,1,TRACTOR SAZI,2014-09-26,9
3,MALAVAN,0,2,1,1,ESTEGHLAL FC,2014-10-02,1
2,RAH AHAN,0,1,0,0,ESTEGHLAL KHUZESTAN,2014-10-02,1
0,PADIDEH,0,0,1,0,GOSTARESH,2014-10-02,1
1,ZOB AHAN,0,0,0,0,NAFT TEHRAN,2014-10-02,1
4,TRACTOR SAZI,1,0,0,0,SAIPA,2014-10-03,1
5,SABA QOM,0,0,1,0,PAYKAN,2014-10-03,1
6,FOOLAD FC,1,2,0,0,NAFT MASJED SOLEYMAN,2014-10-03,1
7,PERSEPOLIS FC,0,0,0,1,SEPAHAN FC,2014-10-03,1
8,SAIPA,0,0,1,0,PERSEPOLIS FC,2014-10-21,1
9,GOSTARESH,0,0,0,1,SABA QOM,2014-10-21,1
10,NAFT MASJED SOLEYMAN,0,0,0,0,ESTEGHLAL KHUZESTAN,2014-10-21,1
11,ESTEGHLAL FC,1,0,0,1,PADIDEH,2014-10-22,1
14,FOOLAD FC,0,0,1,0,ZOB AHAN,2014-10-22,1
12,NAFT TEHRAN,0,0,1,1,MALAVAN,2014-10-22,1
15,PAYKAN,1,0,1,1,TRACTOR SAZI,2014-10-22,1
13,SEPAHAN FC,0,1,0,0,RAH AHAN,2014-10-22,1
16,PERSEPOLIS FC,0,0,1,0,PAYKAN,2014-10-30,1
17,MALAVAN,0,0,0,1,FOOLAD FC,2014-10-30,1
21,RAH AHAN,1,1,1,0,SAIPA,2014-10-31,1
20,SABA QOM,0,0,1,1,ESTEGHLAL FC,2014-10-31,1
22,TRACTOR SAZI,2,1,1,0,GOSTARESH,2014-10-31,1
18,PADIDEH,0,1,0,0,NAFT TEHRAN,2014-10-31,1
19,ESTEGHLAL KHUZESTAN,1,1,1,2,SEPAHAN FC,2014-10-31,1
23,ZOB AHAN,1,0,0,1,NAFT MASJED SOLEYMAN,2014-10-31,1
1,NAFT MASJED SOLEYMAN,0,1,0,0,SEPAHAN FC,2014-11-06,1
2,GOSTARESH,1,2,1,0,PERSEPOLIS FC,2014-11-06,1
0,PAYKAN,0,0,0,0,RAH AHAN,2014-11-06,1
7,ESTEGHLAL FC,0,0,2,2,TRACTOR SAZI,2014-11-07,1
6,NAFT TEHRAN,0,0,2,1,SABA QOM,2014-11-07,1
5,SAIPA,0,0,0,2,ESTEGHLAL KHUZESTAN,2014-11-07,1
4,ZOB AHAN,0,1,3,0,MALAVAN,2014-11-07,1
3,FOOLAD FC,0,0,0,0,PADIDEH,2014-11-07,1
8,MALAVAN,0,0,2,3,NAFT MASJED SOLEYMAN,2014-11-20,1
9,TRACTOR SAZI,1,1,0,1,NAFT TEHRAN,2014-11-21,1
10,ESTEGHLAL KHUZESTAN,1,0,0,1,PAYKAN,2014-11-21,1
11,SEPAHAN FC,1,2,1,0,SAIPA,2014-11-21,1
12,SABA QOM,1,0,0,0,FOOLAD FC,2014-11-22,1
13,PADIDEH,0,1,0,1,ZOB AHAN,2014-11-22,1
14,RAH AHAN,0,1,0,1,GOSTARESH,2014-11-23,1
15,PERSEPOLIS FC,0,1,2,0,ESTEGHLAL FC,2014-11-23,1
1,SABA QOM,1,1,0,2,ZOB AHAN,2014-12-01,1
2,RAH AHAN,0,0,0,1,ESTEGHLAL FC,2014-12-01,1
0,PERSEPOLIS FC,0,1,1,1,NAFT TEHRAN,2014-12-01,1
3,PADIDEH,1,1,1,1,MALAVAN,2014-12-02,1
4,TRACTOR SAZI,1,2,1,1,FOOLAD FC,2014-12-02,1
5,ESTEGHLAL KHUZESTAN,0,1,2,1,GOSTARESH,2014-12-04,1
6,SAIPA,1,0,0,0,NAFT MASJED SOLEYMAN,2014-12-04,1
7,SEPAHAN FC,1,1,1,0,PAYKAN,2014-12-04,1
8,MALAVAN,0,0,1,1,SABA QOM,2014-12-10,1
9,PAYKAN,1,0,0,1,SAIPA,2014-12-10,1
10,GOSTARESH,0,2,1,2,SEPAHAN FC,2014-12-10,1
14,ZOB AHAN,1,1,0,1,TRACTOR SAZI,2014-12-11,1
11,FOOLAD FC,1,1,1,0,PERSEPOLIS FC,2014-12-11,1
12,NAFT MASJED SOLEYMAN,0,0,1,1,PADIDEH,2014-12-11,1
13,NAFT TEHRAN,0,0,1,0,RAH AHAN,2014-12-11,1
15,ESTEGHLAL FC,2,3,2,1,ESTEGHLAL KHUZESTAN,2014-12-11,1
