('/home/jose/Documentos/tigerbol/build/boston_data_set/boston_data_set',
 True,
 False,
 True,
 None,
 None,
 False,
 False,
 None,
 True,
 'boston_data_set.pkg',
 [('out00-PYZ.pyz',
   '/home/jose/Documentos/tigerbol/build/boston_data_set/out00-PYZ.pyz',
   'PYZ'),
  ('struct', '/usr/lib/python2.7/struct.pyc', 'PYMODULE'),
  ('pyimod01_os_path',
   '/usr/local/lib/python2.7/dist-packages/PyInstaller/loader/pyimod01_os_path.pyc',
   'PYMODULE'),
  ('pyimod02_archive',
   '/usr/local/lib/python2.7/dist-packages/PyInstaller/loader/pyimod02_archive.pyc',
   'PYMODULE'),
  ('pyimod03_importers',
   '/usr/local/lib/python2.7/dist-packages/PyInstaller/loader/pyimod03_importers.pyc',
   'PYMODULE'),
  ('pyiboot01_bootstrap',
   '/usr/local/lib/python2.7/dist-packages/PyInstaller/loader/pyiboot01_bootstrap.py',
   'PYSOURCE'),
  ('pyi_rth__tkinter',
   '/usr/local/lib/python2.7/dist-packages/PyInstaller/loader/rthooks/pyi_rth__tkinter.py',
   'PYSOURCE'),
  ('pyi_rth_pkgres',
   '/usr/local/lib/python2.7/dist-packages/PyInstaller/loader/rthooks/pyi_rth_pkgres.py',
   'PYSOURCE'),
  ('pyi_rth_qt4plugins',
   '/usr/local/lib/python2.7/dist-packages/PyInstaller/loader/rthooks/pyi_rth_qt4plugins.py',
   'PYSOURCE'),
  ('pyi_rth_qt5',
   '/usr/local/lib/python2.7/dist-packages/PyInstaller/loader/rthooks/pyi_rth_qt5.py',
   'PYSOURCE'),
  ('pyi_rth_qt5plugins',
   '/usr/local/lib/python2.7/dist-packages/PyInstaller/loader/rthooks/pyi_rth_qt5plugins.py',
   'PYSOURCE'),
  ('pyi_rth_mplconfig',
   '/usr/local/lib/python2.7/dist-packages/PyInstaller/loader/rthooks/pyi_rth_mplconfig.py',
   'PYSOURCE'),
  ('pyi_rth_mpldata',
   '/usr/local/lib/python2.7/dist-packages/PyInstaller/loader/rthooks/pyi_rth_mpldata.py',
   'PYSOURCE'),
  ('boston_data_set',
   '/home/jose/Documentos/tigerbol/boston_data_set.py',
   'PYSOURCE')],
 [],
 False,
 False,
 1495015164,
 [('run',
   '/usr/local/lib/python2.7/dist-packages/PyInstaller/bootloader/Linux-64bit/run',
   'EXECUTABLE')])
